{
    "variables": {
        "source_image": "unknown",
        "image_name": "unknown",
        "build_flavor": "16",
        "factory_network": "{{ env `FACTORY_NETWORK_ID` }}",
        "factory_security_group_name": "{{ env `FACTORY_SECURITY_GROUP_NAME` }}",
        "bundle_path": "unknown"
    },
    "builders": [
        {
            "type": "openstack",
            "ssh_username": "cloud",
            "flavor": "{{ user `build_flavor` }}",
            "image_name": "{{ user `image_name` }}",
            "source_image": "{{ user `source_image` }}",
            "security_groups": ["{{ user `factory_security_group_name` }}"],
            "networks": "{{ user `factory_network` }}",
            "communicator": "ssh",
            "ssh_pty": true,
            "ssh_timeout": "5m"
        }
    ],
    "provisioners": [
        {
            "type": "shell",
            "inline": [
                "sudo yum erase python-pip python-crypto -y",
                "sudo yum makecache -y",
                "sudo yum install gcc python-pyasn1 python-devel openssl-devel libffi-devel git -y",
                "for i in {1..5}; do sudo easy_install pip && break || sleep 2; done",
                "sudo pip install -U pip ansible cryptography",
                "sudo rm -rf /home/cloud/.ssh/authorized_keys",
                "sudo rm -rf /var/log/cloud-init*",
                "sudo rm -rf /home/cloud/known_hosts/"
            ]
        },
        {
            "type": "ansible-local",
            "extra_arguments": ["-vvv"],
            "playbook_dir": "{{ user `bundle_path` }}/ansible",
            "playbook_file": "{{ user `bundle_path` }}/ansible/bootstrap.yml",
            "inventory_file": "ansible_local_inventory"
        },
        {
            "type": "shell",
            "inline": [
                "sudo yum clean all -y",
                "sudo sync"
            ]
        }
    ]
}
